63973 434101 449
270974 247853 407
823695 913597 525
749472 263756 509
315649 230372 443
88696 169088 383
21380 727953 509
521503 892309 525
285436 185639 443
840889 384888 525
102462 780868 509
504937 670700 509
529429 103363 470
414859 129340 449
180990 695319 509
673490 652142 442
490136 297171 449
450952 383290 449
828679 889537 525
946907 207974 525
3 794096 509
212674 983326 525
811834 327690 509
672423 447371 509
544715 238011 470
71315 868507 525
127696 950186 525
203483 624589 470
775153 409142 509
146620 871766 525
863850 780396 525
690253 689916 336
624424 711688 509
429056 190802 449
402187 889806 525
735069 543237 509
916105 876604 476
248690 260838 363
704265 192978 509
84507 795889 509
681118 166540 509
607699 146437 470
218624 32790 386
282017 937781 525
953858 478276 525
796848 369963 509
853034 929622 476
806772 137710 509
328397 980069 525
477352 773620 509
464553 466464 369
14498 86634 351
250242 446687 449
749858 572127 509
951869 590586 525
34427 318793 443
883583 426066 525
631966 469141 509
552996 782358 509
647325 735862 504
854422 647491 525
293301 244642 407
528797 271534 470
999969 111624 525
865454 605157 525
989510 486605 525
931849 659107 525
368597 2568 443
575666 197069 470
285824 965587 525
316771 106862 443
406299 786920 509
41330 851723 525
661185 268001 509
893632 427865 525
836888 917814 525
480295 817846 509
833395 65092 509
946412 150469 525
805493 623682 509
74950 514291 470
862217 370305 525
292146 557611 470
5977 384382 443
79582 949835 525
955370 71350 525
477522 745533 509
974479 19073 525
465697 185899 449
472180 90801 449
468914 945291 525
481609 965729 525
942006 478753 525
94567 803075 509
398290 905157 525
300738 871583 525
360763 40294 443
535043 392784 470
456162 474663 444
93340 465153 449
73671 998970 525
982001 281233 525
564983 647858 509
259195 370365 441
926045 558040 525
780739 12259 509
446890 286088 449
289200 730624 509
406172 831955 509
297764 661623 509
616608 20796 470
698329 244980 509
589234 784183 509
243139 331736 407
947295 730796 525
379627 549472 470
36026 674578 509
414439 390365 449
746472 5446 509
218846 978886 525
932060 542345 525
347476 564752 470
684404 742554 504
856868 487655 525
956789 16476 525
146363 919801 525
695004 444453 509
523607 199452 470
518341 161733 470
3148 525367 470
288442 653625 509
76506 435866 449
711352 591339 509
535627 405760 470
587789 55009 470
246133 73763 443
720389 564018 509
947084 289410 525
692479 471153 509
527007 65695 470
949498 42472 525
299019 287182 389
898895 276503 525
423129 98246 449
230963 386151 441
228390 6504 386
622210 63780 470
680118 591349 509
796671 720757 468
91622 161303 383
686447 493570 509
599445 17814 470
568989 677899 509
888706 140786 525
208700 529763 470
155874 981897 525
686406 565778 509
193425 64141 383
279454 867209 525
299048 807346 509
834384 42837 509
552272 226222 470
590344 175998 470
651371 582778 509
880813 120246 525
275621 130224 443
113650 672648 509
563960 873388 525
169538 80319 383
450881 66228 449
541785 594603 452
206045 178197 365
584405 360406 470
78441 422007 449
848218 163305 525
612732 705846 509
913141 794007 525
435707 335492 449
366306 359377 410
556371 977355 525
987066 746194 525
781271 652488 504
941569 214031 525
315554 94941 443
998980 817339 525
652602 674265 442
17954 630073 509
107136 687168 509
865462 995918 507
983063 373104 525
889583 571412 525
604613 578781 434
925276 859771 476
800351 523029 509
401305 9702 443
73122 532654 470
632754 962357 525
454235 101579 449
268886 910343 525
889989 400237 525
