209079 946292 525
304876 248401 407
619754 615252 372
568008 439313 470
413284 767452 509
31731 97503 351
901628 916283 476
70868 968347 525
936883 917963 476
12480 117464 354
583197 580849 328
378325 18817 443
372188 284209 441
352119 747833 509
384682 744059 509
185622 142216 383
258043 490447 449
567145 798042 509
231069 453512 449
941872 679871 525
507369 294994 449
395499 940945 525
543325 767286 509
990967 273239 525
348198 433962 449
382689 736944 509
521625 543639 408
123430 555172 470
547712 713368 509
326132 801968 509
815102 348200 509
246249 260437 363
938856 400357 525
909741 982595 507
222686 154439 386
127726 243759 443
519012 214356 470
110791 651598 509
319514 763187 509
424370 143687 449
640298 468913 509
211091 487192 449
153492 116997 375
446858 680546 509
61017 165019 383
494500 349268 449
406508 935115 525
372109 826773 509
877763 86684 525
962813 115889 525
664833 344866 509
858491 337897 525
607762 199558 470
652052 593343 509
693256 435198 509
271201 382472 441
940920 903365 507
381184 863014 525
857463 908203 445
974837 259218 525
931174 938950 445
15315 678365 509
89209 254381 443
400213 439668 449
646616 696 509
575369 775319 509
38799 127417 354
842420 424595 525
547967 355115 470
776308 209305 509
309428 844274 525
197199 152501 383
114909 16387 354
825896 82258 509
917890 186366 525
92617 948452 525
489809 279612 449
566069 272862 470
376208 927600 525
123126 251541 443
158379 662588 509
288912 33298 443
38689 765072 509
142981 609248 470
936778 556867 525
809298 565793 509
608974 578185 434
826097 677001 504
784724 138882 509
626213 942258 525
951575 191983 525
949349 211198 525
214101 341935 443
254785 980268 525
602458 70476 470
106348 293978 443
312637 939806 525
61070 938693 525
623187 615743 372
808732 278032 509
652159 42790 509
181612 146257 383
693167 998585 525
182014 189720 347
600956 556914 434
359814 926284 525
584521 696517 509
712977 578782 509
809795 407149 509
781147 430951 509
414119 164879 449
755702 52933 509
891108 575362 525
239230 248284 368
317310 316836 322
753217 985599 525
560889 253824 470
214814 895217 525
437868 738080 509
381823 135114 443
762826 665026 504
699703 559979 509
378695 811967 509
75110 163606 383
544212 348608 470
847637 707078 525
507812 180919 449
634715 293916 509
703147 966157 525
784171 408193 509
764164 219832 509
884837 592774 525
476577 924689 525
157584 512225 470
857777 447302 525
577546 618548 447
788697 369559 509
262843 17811 443
8786 50435 324
5912 421839 449
829250 347604 509
820667 261565 509
619884 949017 525
31999 137198 354
981251 191302 525
743700 785342 468
526709 74847 470
486740 654245 509
367666 424709 449
471847 995795 525
720699 791976 468
148733 106493 375
536581 741971 509
708788 979513 525
688959 633695 442
758983 166117 509
54399 859193 525
641707 87017 509
765661 781975 468
778634 382995 509
26575 290436 443
976277 148893 525
139508 965208 525
846697 56267 525
815440 348625 509
368908 437363 449
411797 699996 509
144842 376715 443
474647 922162 525
88316 736539 509
849618 52772 525
126244 828232 509
669741 828014 504
988426 134678 525
728707 347041 509
315555 86673 443
104429 792048 509
124654 401693 443
410489 492027 444
136995 904347 525
722038 357425 509
595578 65217 470
47850 858488 525
977624 718474 525
201730 271794 443
442060 548493 470
64159 877500 525
942811 971835 458
518967 154106 470
685817 983375 525
800083 787987 468
10928 383936 443
589796 491799 470
839505 561722 525
972707 208761 525
544308 660949 509
268453 269157 345
470317 538456 470
841512 460883 525
363512 382722 423
217836 777602 509
649145 249588 509
225729 816105 509
841892 55126 525
422378 408730 449
367336 758463 509
767601 97174 509
727538 566029 509
362836 480837 449
253064 993535 525
86095 305789 443
649591 533183 509
122544 399753 443
169360 490928 449
715573 203992 509
515990 282292 470
944652 704729 525
525818 105085 470
973986 24766 525
259658 443547 449
9896 800192 509
386029 300769 441
155088 737625 509
640172 404925 509
454391 424122 400
702748 889710 525
689222 544982 509
57955 110504 354
897044 153847 525
262849 325176 407
167209 535067 470
587988 942096 525
996055 500034 525
174080 917739 525
371856 667186 509
690127 672487 398
804066 389663 509
975670 585538 525
711637 515095 509
302999 728526 509
941495 88746 525
704800 2293 509
701058 444274 509
278550 252401 407
857572 865597 388
500971 256385 449
382245 148882 443
364261 699325 509
698616 945419 525
580320 384248 470
